MIAmaxent â€” variable transformation and model selection for species distribution models
…
Demonstration data set

Presence-only occurrence data

PO <- read_csv("simdata/presences.csv")
PO

## # A tibble: 41 x 3
##    Occurrence xcoord ycoord
##    <chr>       <dbl>  <dbl>
##  1 sp.           0.5    0.5
##  2 sp.           0.5    1.5
##  3 sp.           0.5    2.5
##  4 sp.           0.5    3.5
##  5 sp.           1.5    0.5
##  6 sp.           1.5    1.5
##  7 sp.           1.5    2.5
##  8 sp.           1.5    4.5
##  9 sp.           1.5    7.5
## 10 sp.           2.5    0.5
## # ... with 31 more rows
…
